{
  "apn": {
    "passphrase": "1991bruce",  
    "key": "CarvicerKey.pem",
    "cert": "CarvicerProdCert.pem"
  }, 
  "apn-dev": {
    "passphrase": "1991bruce",  
    "key": "CarvicerKey.pem",
    "cert": "CarvicerDevCert.pem"
  },
  "gcm": {
    "apiKey": "AIzaSyAOp78AQ-dJicKcLMo8ymJUGkRmfKDwttk",
    "projectNumber": 942933198094
  },
  "production": false,
  "badge": true,
  "sound": true,
  "alert": true,
  "vibrate": true
}

